…
## 
## Attaching package: 'dplyr'

## The following objects are masked from 'package:stats':
## 
##     filter, lag

## The following objects are masked from 'package:base':
## 
##     intersect, setdiff, setequal, union

select(EVS, v102, v185, v189,v190, v191, v192, v193, v225,v226,v243_edulvlb,country,v175_cs,v275c_N1)

## # A tibble: 56,368 x 13
##     v102     v185    v189    v190    v191    v192    v193    v225  v226
##    <dbl> <dbl+lb> <dbl+l> <dbl+l> <dbl+l> <dbl+l> <dbl+l> <dbl+l> <dbl>
##  1     5  8       2 [qui… 1 [ver… 4 [not… 1 [ver… 1 [ver… 1 [mal…  1957
##  2     3 10 [do … 3 [not… 1 [ver… 3 [not… 2 [qui… 1 [ver… 2 [fem…  1950
##  3     4  8       4 [not… 1 [ver… 4 [not… 2 [qui… 2 [qui… 1 [mal…  1979
##  4     6  4       3 [not… 4 [not… 4 [not… 2 [qui… 2 [qui… 2 [fem…  1962
##  5     5  4       2 [qui… 1 [ver… 2 [qui… 1 [ver… 1 [ver… 2 [fem…  1949
##  6     6  5       2 [qui… 2 [qui… 2 [qui… 2 [qui… 2 [qui… 2 [fem…  1975
##  7     4  8       2 [qui… 2 [qui… 3 [not… 2 [qui… 2 [qui… 1 [mal…  1957
##  8     6  5       3 [not… 2 [qui… 4 [not… 2 [qui… 2 [qui… 1 [mal…  1981
##  9     2 10 [do … 3 [not… 3 [not… 3 [not… 3 [not… 1 [ver… 2 [fem…  1955
## 10     4  8       3 [not… 1 [ver… 4 [not… 1 [ver… 2 [qui… 1 [mal…  1971
## # … with 56,358 more rows, and 4 more variables: v243_edulvlb <dbl+lbl>,
## #   country <dbl+lbl>, v175_cs <dbl+lbl>, v275c_N1 <dbl+lbl>
…
